<svg xmlns="http://www.w3.org/2000/svg" width="21.425" height="21.425" viewBox="0 0 21.425 21.425">
  <g id="tennis-tennis-ball-svgrepo-com" transform="translate(0 10.712) rotate(-45)">
    <path id="Path_503" data-name="Path 503" d="M22.755,15.42A7.336,7.336,0,1,1,15.42,8.084,7.336,7.336,0,0,1,22.755,15.42Z" transform="translate(-7.845 -7.845)" fill="#b5ce00"/>
    <path id="Path_504" data-name="Path 504" d="M254.376,249.154a6.3,6.3,0,0,1-6.22,5.3.239.239,0,0,1,0-.478,5.791,5.791,0,0,0,5.748-4.9.239.239,0,1,1,.472.075Zm-.16-1.238a.239.239,0,0,0-.239.239v.042a.239.239,0,0,0,.237.241h0a.239.239,0,0,0,.239-.237c0-.015,0-.03,0-.046A.239.239,0,0,0,254.215,247.916Z" transform="translate(-240.58 -240.58)" fill="#fff"/>
    <path id="Path_505" data-name="Path 505" d="M114.025,9.6v5.82a4.465,4.465,0,0,1-4.465,4.465h0A4.465,4.465,0,0,1,105.1,15.42V9.6a7.335,7.335,0,0,1,8.93,0Z" transform="translate(-101.985 -7.845)" fill="#ffffa9"/>
    <path id="Path_506" data-name="Path 506" d="M144.449,8.976V15.42a3.508,3.508,0,0,1-7.017,0V8.976a7.346,7.346,0,0,1,7.017,0Z" transform="translate(-133.365 -7.845)" fill="#cdef00"/>
    <path id="Path_507" data-name="Path 507" d="M12.931,2.219A7.575,7.575,0,1,0,2.219,12.931,7.575,7.575,0,1,0,12.931,2.219ZM3.349,1.877q.232-.173.478-.326V7.575a3.748,3.748,0,0,0,7.5,0V1.551q.246.154.478.326v5.7a4.226,4.226,0,1,1-8.452,0Zm7.5-.6v6.3a3.269,3.269,0,1,1-6.538,0v-6.3a7.085,7.085,0,0,1,6.538,0ZM7.575,14.671a7.093,7.093,0,0,1-4.7-12.4V7.575a4.7,4.7,0,0,0,9.409,0V2.267a7.093,7.093,0,0,1-4.7,12.4Z" transform="translate(0 0)"/>
  </g>
</svg>
