<svg xmlns="http://www.w3.org/2000/svg" width="23" height="23" viewBox="0 0 23 23">
  <g id="plus" transform="translate(-1 -1)">
    <circle id="Ellipse_140" data-name="Ellipse 140" cx="11.5" cy="11.5" r="11.5" transform="translate(1 1)" fill="#e5aa17"/>
    <path id="Path_714" data-name="Path 714" d="M266.192,121.066h-2.671a.445.445,0,0,0-.445.445v10.417a.445.445,0,0,0,.445.445h2.671a.445.445,0,0,0,.445-.445V121.511A.445.445,0,0,0,266.192,121.066Z" transform="translate(-252.366 -114.677)" fill="#fff"/>
    <path id="Path_715" data-name="Path 715" d="M266.192,121.066h-2.671a.445.445,0,0,0-.445.445v10.417a.445.445,0,0,0,.445.445h2.671a.445.445,0,0,0,.445-.445V121.511A.445.445,0,0,0,266.192,121.066Z" transform="translate(139.21 -252.814) rotate(90)" fill="#fff"/>
    <path id="Path_715" data-name="Path 715" d="M36.068,20.176l-29-20C6.761-0.035,6.363-0.057,6.035,0.114C5.706,0.287,5.5,0.627,5.5,0.999v40  c0,0.372,0.206,0.713,0.535,0.886c0.146,0.076,0.306,0.114,0.465,0.114c0.199,0,0.397-0.06,0.568-0.177l29-20  c0.271-0.187,0.432-0.494,0.432-0.823S36.338,20.363,36.068,20.176z" transform="translate(139.21 -252.814) rotate(90)" fill="#fff"/>
    
  </g>
</svg>