<svg xmlns="http://www.w3.org/2000/svg" width="26.699" height="28.705" viewBox="0 0 26.699 28.705">
  <g id="game_setting" transform="translate(0 0)">
    <g id="Group_56" data-name="Group 56" transform="translate(0.421 1.861)">
      <path id="Path_537" data-name="Path 537" d="M31.059,33.191H9.8a2.3,2.3,0,1,0,0,4.6h21.26a2.3,2.3,0,0,0,0-4.6Zm0,0" transform="translate(-7.5 -33.191)" fill="#ebebeb"/>
      <path id="Path_538" data-name="Path 538" d="M31.059,214.992H9.8a2.3,2.3,0,0,0,0,4.6h21.26a2.3,2.3,0,0,0,0-4.6Zm0,0" transform="translate(-7.5 -204.799)" fill="#ebebeb"/>
      <path id="Path_539" data-name="Path 539" d="M31.059,396.793H9.8a2.3,2.3,0,0,0,0,4.6h21.26a2.3,2.3,0,0,0,0-4.6Zm0,0" transform="translate(-7.5 -376.408)" fill="#ebebeb"/>
    </g>
    <path id="Path_540" data-name="Path 540" d="M103.258,35.491a5.391,5.391,0,0,0,.512,2.3h9.818a5.416,5.416,0,0,0,0-4.6H103.77A5.391,5.391,0,0,0,103.258,35.491Zm0,0" transform="translate(-97.469 -31.331)" fill="#d5d4da"/>
    <path id="Path_541" data-name="Path 541" d="M140.737,11.24A3.74,3.74,0,1,1,137,7.5,3.739,3.739,0,0,1,140.737,11.24Zm0,0" transform="translate(-125.786 -7.08)" fill="#7292df"/>
    <path id="Path_542" data-name="Path 542" d="M247.294,214.992a5.414,5.414,0,0,0,0,4.6h9.631c.064,0,.128,0,.191-.009a5.413,5.413,0,0,0,0-4.581c-.063-.005-.127-.009-.191-.009Zm0,0" transform="translate(-232.945 -202.938)" fill="#d5d4da"/>
    <path id="Path_543" data-name="Path 543" d="M284.261,193.04a3.74,3.74,0,1,1-3.74-3.739A3.74,3.74,0,0,1,284.261,193.04Zm0,0" transform="translate(-261.264 -178.688)" fill="#7292df"/>
    <path id="Path_544" data-name="Path 544" d="M41.746,399.092a5.39,5.39,0,0,0,.512,2.3h9.818a5.414,5.414,0,0,0,0-4.6H42.258A5.391,5.391,0,0,0,41.746,399.092Zm0,0" transform="translate(-39.406 -374.547)" fill="#d5d4da"/>
    <path id="Path_545" data-name="Path 545" d="M79.222,374.841a3.74,3.74,0,1,1-3.74-3.74A3.74,3.74,0,0,1,79.222,374.841Zm0,0" transform="translate(-67.72 -350.296)" fill="#7292df"/>
    <path id="Path_546" data-name="Path 546" d="M2.72,6.88H8.067a4.151,4.151,0,0,0,6.288,0H23.98a2.72,2.72,0,1,0,0-5.439H14.354a4.151,4.151,0,0,0-6.288,0H2.72a2.72,2.72,0,0,0,0,5.439Zm12.2-4.6H23.98a1.879,1.879,0,1,1,0,3.757H14.923a4.1,4.1,0,0,0,.425-1.45V4.581a4.182,4.182,0,0,0-.426-2.3ZM11.211.841a3.368,3.368,0,0,1,3.28,2.811s0,.007,0,.011a3.4,3.4,0,0,1-3.282,3.817A3.358,3.358,0,0,1,7.929,3.663l0-.012a3.359,3.359,0,0,1,3.28-2.81ZM2.72,2.281H7.5a4.179,4.179,0,0,0-.426,2.3v.009A4.094,4.094,0,0,0,7.5,6.039H2.72a1.879,1.879,0,0,1,0-3.757Zm0,0" transform="translate(0 0)"/>
    <path id="Path_547" data-name="Path 547" d="M2.719,188.681H16.113a4.151,4.151,0,0,0,6.288,0h1.578a2.72,2.72,0,0,0,0-5.439H22.4a4.151,4.151,0,0,0-6.288,0H7.338a.421.421,0,0,0,0,.841h8.206a4.1,4.1,0,0,0-.425,1.45,4.251,4.251,0,0,0,0,.849v.008a4.1,4.1,0,0,0,.425,1.45H2.719a1.879,1.879,0,0,1,0-3.757H5.656a.42.42,0,0,0,0-.841H2.719a2.72,2.72,0,0,0,0,5.439Zm20.25-4.6h1.009a1.879,1.879,0,1,1,0,3.757H22.969a4.093,4.093,0,0,0,.425-1.45,4.252,4.252,0,0,0,0-.858A4.093,4.093,0,0,0,22.969,184.082Zm-3.713-1.44a3.319,3.319,0,1,1-3.3,3.7A3.378,3.378,0,0,1,19.256,182.642Zm0,0" transform="translate(0.001 -171.608)"/>
    <path id="Path_548" data-name="Path 548" d="M2.721,370.482h1.9a4.151,4.151,0,0,0,6.288,0H23.98a2.72,2.72,0,1,0,0-5.439H20.963a.42.42,0,1,0,0,.841H23.98a1.879,1.879,0,0,1,0,3.757h-12.5a4.1,4.1,0,0,0,.425-1.45s0-.005,0-.008a4.154,4.154,0,0,0-.426-2.3h7.806a.42.42,0,1,0,0-.841H10.907a4.151,4.151,0,0,0-6.288,0h-1.9a2.72,2.72,0,1,0,0,5.439Zm5.042-6.039a3.319,3.319,0,1,1,0,6.638,3.413,3.413,0,0,1-3.294-2.912A3.356,3.356,0,0,1,7.763,364.443Zm-5.042,1.44H4.05a4.092,4.092,0,0,0-.425,1.45,4.175,4.175,0,0,0,.425,2.308H2.721a1.879,1.879,0,0,1,0-3.757Zm0,0" transform="translate(-0.001 -343.216)"/>
  </g>
</svg>
